<svg
        class="svg"
        xmlns="http://www.w3.org/2000/svg"
        xmlns:xlink="http://www.w3.org/1999/xlink"
        width="14.347in" height="3.1in">
    <defs>
        <linearGradient id="PSgrad_0" x1="0%" x2="64.279%" y1="76.604%" y2="0%">
            <stop offset="0%" stop-color="rgb(109,178,62)" stop-opacity="1" />
            <stop offset="100%" stop-color="rgb(62,178,84)" stop-opacity="1" />
        </linearGradient>

    </defs>
    <path fill-rule="evenodd"  fill="rgb(110, 180, 63)"
          d="M1753.000,-0.001 C1753.000,-0.001 1307.707,126.417 865.978,152.623 C431.263,178.413 0.000,113.998 0.000,113.998 L0.000,306.142 L1753.000,306.142 L1753.000,-0.001 Z"/>
    <path fill="url(#PSgrad_0)"
          d="M1753.000,-0.001 C1753.000,-0.001 1307.707,126.417 865.978,152.623 C431.263,178.413 0.000,113.998 0.000,113.998 L0.000,306.142 L1753.000,306.142 L1753.000,-0.001 Z"/>
</svg>
